EESchema Schematic File Version 2
LIBS:air_monitor_schematic_v2-rescue
LIBS:power
LIBS:device
LIBS:switches
LIBS:relays
LIBS:motors
LIBS:transistors
LIBS:conn
LIBS:linear
LIBS:regul
LIBS:74xx
LIBS:cmos4000
LIBS:adc-dac
LIBS:memory
LIBS:xilinx
LIBS:microcontrollers
LIBS:dsp
LIBS:microchip
LIBS:analog_switches
LIBS:motorola
LIBS:texas
LIBS:intel
LIBS:audio
LIBS:interface
LIBS:digital-audio
LIBS:philips
LIBS:display
LIBS:cypress
LIBS:siliconi
LIBS:opto
LIBS:atmel
LIBS:contrib
LIBS:valves
LIBS:microchip_pic16mcu
LIBS:PM_lib
EELAYER 25 0
EELAYER END
$Descr A4 11693 8268
encoding utf-8
Sheet 3 4
Title "Air quality monitor: Base unit"
Date ""
Rev "2"
Comp "George Bryant 1418415"
Comment1 "Module DM3330"
Comment2 "Brunel University London"
Comment3 ""
Comment4 ""
$EndDescr
$Comp
L C C4
U 1 1 5A6DE28E
P 9750 1750
F 0 "C4" H 9775 1850 50  0000 L CNN
F 1 "100nF" H 9775 1650 50  0000 L CNN
F 2 "Capacitors_THT:C_Disc_D6.0mm_W2.5mm_P5.00mm" H 9788 1600 50  0001 C CNN
F 3 "" H 9750 1750 50  0001 C CNN
	1    9750 1750
	0    -1   -1   0   
$EndComp
$Comp
L R R7
U 1 1 5A6DE2CB
P 9800 3400
F 0 "R7" V 9880 3400 50  0000 C CNN
F 1 "10K" V 9800 3400 50  0000 C CNN
F 2 "Resistors_THT:R_Axial_DIN0207_L6.3mm_D2.5mm_P10.16mm_Horizontal" V 9730 3400 50  0001 C CNN
F 3 "" H 9800 3400 50  0001 C CNN
	1    9800 3400
	0    1    1    0   
$EndComp
$Comp
L USB_OTG J8
U 1 1 5A6DE32E
P 10700 1150
F 0 "J8" H 10500 1600 50  0000 L CNN
F 1 "USB_OTG" H 10500 1500 50  0000 L CNN
F 2 "Connectors_USB:USB_Micro-B_Molex-105017-0001" H 10850 1100 50  0001 C CNN
F 3 "" H 10850 1100 50  0001 C CNN
	1    10700 1150
	-1   0    0    -1  
$EndComp
$Comp
L Interconnect J7
U 1 1 5A6DE469
P 8450 1000
F 0 "J7" H 8450 600 50  0000 C CNN
F 1 "Interconnect" H 8450 700 50  0000 C CNN
F 2 "Pin_Headers:Pin_Header_Angled_2x03_Pitch2.54mm" H 8450 1000 50  0001 C CIN
F 3 "" H 8450 1000 50  0001 C CNN
	1    8450 1000
	1    0    0    -1  
$EndComp
$Comp
L ST7920_SPI_Screen J5
U 1 1 5A6DE4D3
P 800 2800
F 0 "J5" H 800 1550 50  0000 C CNN
F 1 "ST7920_SPI_Screen" H 800 1650 50  0000 C CNN
F 2 "PM_footprints:Display-SIP-20" H 700 2800 50  0001 C CIN
F 3 "" H 700 2800 50  0001 C CNN
	1    800  2800
	-1   0    0    -1  
$EndComp
$Comp
L POT RV1
U 1 1 5A6DE6D0
P 1900 1900
F 0 "RV1" V 1725 1900 50  0000 C CNN
F 1 "POT" V 1800 1900 50  0000 C CNN
F 2 "PM_footprints:POT" H 1900 1900 50  0001 C CNN
F 3 "" H 1900 1900 50  0001 C CNN
	1    1900 1900
	0    1    1    0   
$EndComp
$Comp
L +5V #PWR019
U 1 1 5A6DFD12
P 1650 1850
F 0 "#PWR019" H 1650 1700 50  0001 C CNN
F 1 "+5V" H 1650 1990 50  0000 C CNN
F 2 "" H 1650 1850 50  0001 C CNN
F 3 "" H 1650 1850 50  0001 C CNN
	1    1650 1850
	1    0    0    -1  
$EndComp
$Comp
L GND #PWR020
U 1 1 5A6DFD43
P 1650 1400
F 0 "#PWR020" H 1650 1150 50  0001 C CNN
F 1 "GND" H 1650 1250 50  0000 C CNN
F 2 "" H 1650 1400 50  0001 C CNN
F 3 "" H 1650 1400 50  0001 C CNN
	1    1650 1400
	1    0    0    -1  
$EndComp
$Comp
L GND #PWR021
U 1 1 5A6DFF85
P 1750 3250
F 0 "#PWR021" H 1750 3000 50  0001 C CNN
F 1 "GND" H 1750 3100 50  0000 C CNN
F 2 "" H 1750 3250 50  0001 C CNN
F 3 "" H 1750 3250 50  0001 C CNN
	1    1750 3250
	1    0    0    -1  
$EndComp
NoConn ~ 1200 3550
$Comp
L POT RV2
U 1 1 5A6E0214
P 2100 3500
F 0 "RV2" V 1925 3500 50  0000 C CNN
F 1 "POT" V 2000 3500 50  0000 C CNN
F 2 "PM_footprints:POT" H 2100 3500 50  0001 C CNN
F 3 "" H 2100 3500 50  0001 C CNN
	1    2100 3500
	0    1    1    0   
$EndComp
$Comp
L +5V #PWR022
U 1 1 5A6E046A
P 2350 3400
F 0 "#PWR022" H 2350 3250 50  0001 C CNN
F 1 "+5V" H 2350 3540 50  0000 C CNN
F 2 "" H 2350 3400 50  0001 C CNN
F 3 "" H 2350 3400 50  0001 C CNN
	1    2350 3400
	1    0    0    -1  
$EndComp
$Comp
L Joystick J9
U 1 1 5A6E080C
P 11000 2300
F 0 "J9" H 11000 1800 50  0000 C CNN
F 1 "Joystick" H 11000 1900 50  0000 C CNN
F 2 "Pin_Headers:Pin_Header_Angled_1x05_Pitch2.54mm" H 11000 2300 50  0001 C CIN
F 3 "" H 11000 2300 50  0001 C CNN
	1    11000 2300
	1    0    0    -1  
$EndComp
$Comp
L ICSP J6
U 1 1 5A6E1004
P 8400 4250
F 0 "J6" H 8400 3700 50  0000 C CNN
F 1 "ICSP" H 8400 3800 50  0000 C CNN
F 2 "Pin_Headers:Pin_Header_Straight_1x06_Pitch2.54mm" H 8400 4250 50  0001 C CIN
F 3 "" H 8400 4250 50  0001 C CNN
	1    8400 4250
	0    1    1    0   
$EndComp
$Comp
L GND #PWR023
U 1 1 5A6E1311
P 10000 1850
F 0 "#PWR023" H 10000 1600 50  0001 C CNN
F 1 "GND" H 10000 1700 50  0000 C CNN
F 2 "" H 10000 1850 50  0001 C CNN
F 3 "" H 10000 1850 50  0001 C CNN
	1    10000 1850
	1    0    0    -1  
$EndComp
$Comp
L GND #PWR024
U 1 1 5A6E1605
P 8350 3500
F 0 "#PWR024" H 8350 3250 50  0001 C CNN
F 1 "GND" H 8350 3350 50  0000 C CNN
F 2 "" H 8350 3500 50  0001 C CNN
F 3 "" H 8350 3500 50  0001 C CNN
	1    8350 3500
	1    0    0    -1  
$EndComp
$Comp
L +5V #PWR025
U 1 1 5A6E1837
P 8650 3750
F 0 "#PWR025" H 8650 3600 50  0001 C CNN
F 1 "+5V" H 8650 3890 50  0000 C CNN
F 2 "" H 8650 3750 50  0001 C CNN
F 3 "" H 8650 3750 50  0001 C CNN
	1    8650 3750
	1    0    0    -1  
$EndComp
$Comp
L GND #PWR026
U 1 1 5A6E1B4D
P 7050 1100
F 0 "#PWR026" H 7050 850 50  0001 C CNN
F 1 "GND" H 7050 950 50  0000 C CNN
F 2 "" H 7050 1100 50  0001 C CNN
F 3 "" H 7050 1100 50  0001 C CNN
	1    7050 1100
	1    0    0    -1  
$EndComp
Text Label 1250 2050 0    60   ~ 0
LCD_CONTR
Text Label 2950 2150 0    60   ~ 0
LCD_CS
Text Label 2950 2250 0    60   ~ 0
LCD_MOSI
Text Label 2950 2350 0    60   ~ 0
LCD_SCK
$Comp
L GND #PWR027
U 1 1 5A6E2A6E
P 10500 1850
F 0 "#PWR027" H 10500 1600 50  0001 C CNN
F 1 "GND" H 10500 1700 50  0000 C CNN
F 2 "" H 10500 1850 50  0001 C CNN
F 3 "" H 10500 1850 50  0001 C CNN
	1    10500 1850
	1    0    0    -1  
$EndComp
NoConn ~ 10400 1350
NoConn ~ 10400 1250
NoConn ~ 10400 1150
$Comp
L +5V #PWR028
U 1 1 5A6E2D27
P 10300 850
F 0 "#PWR028" H 10300 700 50  0001 C CNN
F 1 "+5V" H 10300 990 50  0000 C CNN
F 2 "" H 10300 850 50  0001 C CNN
F 3 "" H 10300 850 50  0001 C CNN
	1    10300 850 
	1    0    0    -1  
$EndComp
Text Label 9700 2300 0    60   ~ 0
JOY_X
Text Label 9700 2400 0    60   ~ 0
JOY_Y
Text Label 9700 2500 0    60   ~ 0
JOY_B
Text Label 7600 1650 0    60   ~ 0
LOG_SENSE
NoConn ~ 9450 2600
NoConn ~ 9450 2700
NoConn ~ 9450 2900
NoConn ~ 9450 3000
Text Label 2950 2700 0    60   ~ 0
LCD_RST
$Comp
L +5V #PWR029
U 1 1 5A6E4192
P 9500 800
F 0 "#PWR029" H 9500 650 50  0001 C CNN
F 1 "+5V" H 9500 940 50  0000 C CNN
F 2 "" H 9500 800 50  0001 C CNN
F 3 "" H 9500 800 50  0001 C CNN
	1    9500 800 
	1    0    0    -1  
$EndComp
$Comp
L PWR_FLAG #FLG030
U 1 1 5A6E4C0F
P 1800 3750
F 0 "#FLG030" H 1800 3825 50  0001 C CNN
F 1 "PWR_FLAG" H 1800 3900 50  0000 C CNN
F 2 "" H 1800 3750 50  0001 C CNN
F 3 "" H 1800 3750 50  0001 C CNN
	1    1800 3750
	-1   0    0    1   
$EndComp
$Comp
L R R8
U 1 1 5A6F7732
P 9250 1400
F 0 "R8" V 9330 1400 50  0000 C CNN
F 1 "10K" V 9250 1400 50  0000 C CNN
F 2 "Resistors_THT:R_Axial_DIN0207_L6.3mm_D2.5mm_P10.16mm_Horizontal" V 9180 1400 50  0001 C CNN
F 3 "" H 9250 1400 50  0001 C CNN
	1    9250 1400
	0    1    1    0   
$EndComp
$Comp
L ATMEGA328P-PU U2
U 1 1 5A7D8410
P 5300 3700
F 0 "U2" H 4550 4950 50  0000 L BNN
F 1 "ATMEGA328P-PU" H 5700 2300 50  0000 L BNN
F 2 "Housings_DIP:DIP-28_W7.62mm_Socket_LongPads" H 5300 3700 50  0001 C CIN
F 3 "" H 5300 3700 50  0001 C CNN
	1    5300 3700
	-1   0    0    -1  
$EndComp
$Comp
L Crystal Y1
U 1 1 5A7D897C
P 3500 3250
F 0 "Y1" H 3500 3400 50  0000 C CNN
F 1 "16MHz" H 3500 3100 50  0000 C CNN
F 2 "Crystals:Crystal_HC49-4H_Vertical" H 3500 3250 50  0001 C CNN
F 3 "" H 3500 3250 50  0001 C CNN
	1    3500 3250
	0    -1   1    0   
$EndComp
$Comp
L GND #PWR031
U 1 1 5A7D8B1C
P 2850 3250
F 0 "#PWR031" H 2850 3000 50  0001 C CNN
F 1 "GND" H 2850 3100 50  0000 C CNN
F 2 "" H 2850 3250 50  0001 C CNN
F 3 "" H 2850 3250 50  0001 C CNN
	1    2850 3250
	-1   0    0    -1  
$EndComp
$Comp
L C_Small C2
U 1 1 5A7D8FED
P 3100 3100
F 0 "C2" H 3110 3170 50  0000 L CNN
F 1 "22pF" H 3110 3020 50  0000 L CNN
F 2 "Capacitors_THT:C_Disc_D6.0mm_W2.5mm_P5.00mm" H 3100 3100 50  0001 C CNN
F 3 "" H 3100 3100 50  0001 C CNN
	1    3100 3100
	0    -1   1    0   
$EndComp
$Comp
L C_Small C3
U 1 1 5A7D90B6
P 3100 3400
F 0 "C3" H 3110 3470 50  0000 L CNN
F 1 "22pF" H 3110 3320 50  0000 L CNN
F 2 "Capacitors_THT:C_Disc_D6.0mm_W2.5mm_P5.00mm" H 3100 3400 50  0001 C CNN
F 3 "" H 3100 3400 50  0001 C CNN
	1    3100 3400
	0    -1   1    0   
$EndComp
$Comp
L +5V #PWR032
U 1 1 5A7D9781
P 6400 2650
F 0 "#PWR032" H 6400 2500 50  0001 C CNN
F 1 "+5V" H 6400 2790 50  0000 C CNN
F 2 "" H 6400 2650 50  0001 C CNN
F 3 "" H 6400 2650 50  0001 C CNN
	1    6400 2650
	-1   0    0    -1  
$EndComp
$Comp
L R R6
U 1 1 5A7D99DE
P 3950 4050
F 0 "R6" V 4030 4050 50  0000 C CNN
F 1 "10K" V 3950 4050 50  0000 C CNN
F 2 "Resistors_THT:R_Axial_DIN0207_L6.3mm_D2.5mm_P10.16mm_Horizontal" V 3880 4050 50  0001 C CNN
F 3 "" H 3950 4050 50  0001 C CNN
	1    3950 4050
	0    -1   1    0   
$EndComp
$Comp
L +5V #PWR033
U 1 1 5A7D9B5D
P 3600 4050
F 0 "#PWR033" H 3600 3900 50  0001 C CNN
F 1 "+5V" H 3600 4190 50  0000 C CNN
F 2 "" H 3600 4050 50  0001 C CNN
F 3 "" H 3600 4050 50  0001 C CNN
	1    3600 4050
	-1   0    0    -1  
$EndComp
$Comp
L GND #PWR034
U 1 1 5A7DD257
P 6400 5000
F 0 "#PWR034" H 6400 4750 50  0001 C CNN
F 1 "GND" H 6400 4850 50  0000 C CNN
F 2 "" H 6400 5000 50  0001 C CNN
F 3 "" H 6400 5000 50  0001 C CNN
	1    6400 5000
	-1   0    0    -1  
$EndComp
NoConn ~ 7450 2500
NoConn ~ 7450 2600
NoConn ~ 7450 2800
NoConn ~ 4300 3450
NoConn ~ 4300 3550
NoConn ~ 4300 3650
NoConn ~ 4300 3750
NoConn ~ 4300 4400
NoConn ~ 4300 4500
NoConn ~ 4300 4600
NoConn ~ 4300 4700
NoConn ~ 4300 4800
NoConn ~ 4300 4900
Text Label 7450 1000 0    60   ~ 0
SCL
Text Label 7450 1100 0    60   ~ 0
SDA
Text Label 7100 2700 0    60   ~ 0
SCL
Text Label 3850 3950 0    60   ~ 0
SCL
Text Label 7100 2400 0    60   ~ 0
SDA
Text Label 3850 3750 0    60   ~ 0
SDA
NoConn ~ 4300 3000
NoConn ~ 4300 2600
NoConn ~ 6200 3200
$Comp
L C C5
U 1 1 5A7E2EE3
P 6350 3750
F 0 "C5" H 6375 3850 50  0000 L CNN
F 1 "100nF" H 6375 3650 50  0000 L CNN
F 2 "Capacitors_THT:C_Disc_D6.0mm_W2.5mm_P5.00mm" H 6388 3600 50  0001 C CNN
F 3 "" H 6350 3750 50  0001 C CNN
	1    6350 3750
	1    0    0    -1  
$EndComp
$Comp
L Conn_01x02 J14
U 1 1 5A7E3E28
P 3100 4300
F 0 "J14" H 3100 4400 50  0000 C CNN
F 1 "Conn_01x02" H 3100 4100 50  0000 C CNN
F 2 "Pin_Headers:Pin_Header_Straight_1x02_Pitch2.54mm" H 3100 4300 50  0001 C CNN
F 3 "" H 3100 4300 50  0001 C CNN
	1    3100 4300
	-1   0    0    1   
$EndComp
$Comp
L PIC16F1827-I/P U3
U 1 1 5A721603
P 8450 2700
F 0 "U3" H 8600 3400 50  0000 L CNN
F 1 "PIC16F1827-I/P" H 8600 3300 50  0000 L CNN
F 2 "Housings_DIP:DIP-18_W7.62mm_Socket_LongPads" H 8450 2700 50  0001 C CIN
F 3 "" H 8450 2700 50  0001 C CNN
	1    8450 2700
	1    0    0    -1  
$EndComp
$Comp
L +5V #PWR035
U 1 1 5A7E626B
P 10050 3300
F 0 "#PWR035" H 10050 3150 50  0001 C CNN
F 1 "+5V" H 10050 3440 50  0000 C CNN
F 2 "" H 10050 3300 50  0001 C CNN
F 3 "" H 10050 3300 50  0001 C CNN
	1    10050 3300
	1    0    0    -1  
$EndComp
Wire Wire Line
	1200 2350 3800 2350
Wire Wire Line
	1200 2250 3900 2250
Wire Wire Line
	8900 1000 9000 1000
Wire Wire Line
	9000 1000 9000 1650
Wire Wire Line
	9000 1650 7450 1650
Wire Wire Line
	7450 1650 7450 2300
Wire Wire Line
	9500 900  8900 900 
Wire Wire Line
	8450 1750 9600 1750
Wire Wire Line
	8450 1750 8450 2000
Wire Wire Line
	1200 2050 1900 2050
Wire Wire Line
	1200 1950 1750 1950
Wire Wire Line
	1750 1950 1750 1900
Wire Wire Line
	2050 1350 2050 1900
Wire Wire Line
	1200 1350 2050 1350
Wire Wire Line
	1200 1350 1200 1850
Wire Wire Line
	1650 1400 1650 1350
Connection ~ 1650 1350
Wire Wire Line
	1650 1850 1650 1950
Connection ~ 1650 1950
Wire Wire Line
	1200 3250 1950 3250
Wire Wire Line
	1950 3250 1950 3500
Connection ~ 1750 3250
Wire Wire Line
	1200 3650 2100 3650
Wire Wire Line
	1200 3750 1500 3750
Wire Wire Line
	1500 3750 1500 3250
Connection ~ 1500 3250
Wire Wire Line
	2250 3500 2350 3500
Wire Wire Line
	2350 3500 2350 3400
Wire Wire Line
	1200 2150 4000 2150
Wire Wire Line
	9450 2300 10700 2300
Wire Wire Line
	10700 2400 9450 2400
Wire Wire Line
	10700 2500 9450 2500
Wire Wire Line
	10000 1850 10000 1750
Wire Wire Line
	10000 1750 9900 1750
Connection ~ 9500 1750
Wire Wire Line
	8450 3400 8450 3950
Wire Wire Line
	9550 2800 9550 3950
Wire Wire Line
	9550 2800 9450 2800
Wire Wire Line
	8350 3500 8450 3500
Connection ~ 8450 3500
Wire Wire Line
	9550 3950 8650 3950
Connection ~ 9550 3400
Wire Wire Line
	8650 3750 8650 3850
Wire Wire Line
	8650 3850 8550 3850
Wire Wire Line
	8550 3850 8550 3950
Wire Wire Line
	8350 3950 8350 3750
Wire Wire Line
	8350 3750 7450 3750
Wire Wire Line
	7450 3750 7450 3000
Wire Wire Line
	7350 3850 8250 3850
Wire Wire Line
	8250 3850 8250 3950
Wire Wire Line
	8000 900  7050 900 
Wire Wire Line
	7050 900  7050 1100
Wire Wire Line
	10700 1550 10700 2100
Wire Wire Line
	10500 1850 10500 1750
Wire Wire Line
	10500 1750 10700 1750
Connection ~ 10700 1750
Wire Wire Line
	10800 1550 10700 1550
Wire Wire Line
	10400 950  10300 950 
Wire Wire Line
	10300 850  10300 2200
Wire Wire Line
	10300 2200 10700 2200
Connection ~ 10300 950 
Wire Wire Line
	1300 2700 1300 3450
Wire Wire Line
	1300 3450 1200 3450
Connection ~ 9500 900 
Wire Wire Line
	1800 3650 1800 3750
Connection ~ 1800 3650
Wire Wire Line
	9000 1400 9100 1400
Connection ~ 9000 1400
Wire Wire Line
	9500 1400 9400 1400
Connection ~ 9500 1400
Wire Wire Line
	9500 800  9500 1750
Connection ~ 9500 1100
Wire Wire Line
	9500 1100 8900 1100
Wire Wire Line
	4300 3200 3750 3200
Wire Wire Line
	3750 3200 3750 3100
Wire Wire Line
	4300 3300 3750 3300
Wire Wire Line
	3750 3300 3750 3400
Wire Wire Line
	3750 3100 3200 3100
Wire Wire Line
	3750 3400 3200 3400
Connection ~ 3500 3400
Connection ~ 3500 3100
Wire Wire Line
	3000 3100 2950 3100
Wire Wire Line
	2950 3100 2950 3400
Wire Wire Line
	2950 3250 2850 3250
Wire Wire Line
	2950 3400 3000 3400
Connection ~ 2950 3250
Wire Wire Line
	6200 2600 6200 2900
Wire Wire Line
	6200 2750 6400 2750
Wire Wire Line
	6400 2750 6400 2650
Connection ~ 6200 2750
Wire Wire Line
	4300 4050 4100 4050
Wire Wire Line
	3800 4050 3600 4050
Wire Wire Line
	4300 2800 4000 2800
Wire Wire Line
	4000 2800 4000 2150
Wire Wire Line
	3900 2250 3900 2900
Wire Wire Line
	3900 2900 4300 2900
Wire Wire Line
	3800 2350 3800 3100
Wire Wire Line
	3800 3100 4300 3100
Wire Wire Line
	4300 2700 1300 2700
Wire Wire Line
	6200 4800 6400 4800
Wire Wire Line
	6400 4800 6400 5000
Wire Wire Line
	6200 4900 6400 4900
Connection ~ 6400 4900
Wire Wire Line
	7350 2900 7350 3850
Wire Wire Line
	7350 2900 7450 2900
Wire Wire Line
	8000 1000 7350 1000
Wire Wire Line
	8000 1100 7350 1100
Wire Wire Line
	4300 3850 4200 3850
Wire Wire Line
	4200 3850 4200 3750
Wire Wire Line
	4200 3750 3750 3750
Wire Wire Line
	4300 3950 3750 3950
Wire Wire Line
	7450 2400 7000 2400
Wire Wire Line
	7450 2700 7000 2700
Wire Wire Line
	6350 2750 6350 3600
Connection ~ 6350 2750
Wire Wire Line
	6350 3900 6350 4800
Connection ~ 6350 4800
Wire Wire Line
	4300 4200 3300 4200
Wire Wire Line
	3300 4300 4300 4300
Wire Wire Line
	9650 3400 9550 3400
Wire Wire Line
	9950 3400 10050 3400
Wire Wire Line
	10050 3400 10050 3300
$EndSCHEMATC
