EESchema Schematic File Version 2
LIBS:air_monitor_schematic_v2-rescue
LIBS:power
LIBS:device
LIBS:switches
LIBS:relays
LIBS:motors
LIBS:transistors
LIBS:conn
LIBS:linear
LIBS:regul
LIBS:74xx
LIBS:cmos4000
LIBS:adc-dac
LIBS:memory
LIBS:xilinx
LIBS:microcontrollers
LIBS:dsp
LIBS:microchip
LIBS:analog_switches
LIBS:motorola
LIBS:texas
LIBS:intel
LIBS:audio
LIBS:interface
LIBS:digital-audio
LIBS:philips
LIBS:display
LIBS:cypress
LIBS:siliconi
LIBS:opto
LIBS:atmel
LIBS:contrib
LIBS:valves
LIBS:microchip_pic16mcu
LIBS:PM_lib
EELAYER 25 0
EELAYER END
$Descr A4 11693 8268
encoding utf-8
Sheet 4 4
Title "Air quality monitor: Logging unit"
Date ""
Rev "2"
Comp "George Bryant 1418415"
Comment1 "Module DM3330"
Comment2 "Brunel University London"
Comment3 ""
Comment4 ""
$EndDescr
$Comp
L Interconnect J11
U 1 1 5A6F64B9
P 5550 2250
F 0 "J11" H 5550 1850 50  0000 C CNN
F 1 "Interconnect" H 5550 1950 50  0000 C CNN
F 2 "Pin_Headers:Pin_Header_Angled_2x03_Pitch2.54mm" H 5550 2250 50  0001 C CIN
F 3 "" H 5550 2250 50  0001 C CNN
	1    5550 2250
	1    0    0    -1  
$EndComp
Wire Wire Line
	6000 2250 6100 2250
Wire Wire Line
	6100 2250 6100 1950
Wire Wire Line
	5100 1950 6700 1950
Wire Wire Line
	5100 1950 5100 2150
Wire Wire Line
	4050 3650 4850 3650
Wire Wire Line
	4050 3750 4850 3750
Wire Wire Line
	5100 2350 4550 2350
Wire Wire Line
	4550 2350 4550 3650
Connection ~ 4550 3650
Wire Wire Line
	4450 3750 4450 2250
Wire Wire Line
	4450 2250 5100 2250
Connection ~ 4450 3750
$Comp
L GND #PWR036
U 1 1 5A6F82A6
P 3650 4150
F 0 "#PWR036" H 3650 3900 50  0001 C CNN
F 1 "GND" H 3650 4000 50  0000 C CNN
F 2 "" H 3650 4150 50  0001 C CNN
F 3 "" H 3650 4150 50  0001 C CNN
	1    3650 4150
	1    0    0    -1  
$EndComp
$Comp
L +5V #PWR037
U 1 1 5A6F82E2
P 3650 2800
F 0 "#PWR037" H 3650 2650 50  0001 C CNN
F 1 "+5V" H 3650 2940 50  0000 C CNN
F 2 "" H 3650 2800 50  0001 C CNN
F 3 "" H 3650 2800 50  0001 C CNN
	1    3650 2800
	1    0    0    -1  
$EndComp
Wire Wire Line
	3650 2800 3650 3450
Wire Wire Line
	3650 4050 3650 4150
Wire Wire Line
	4050 4100 4050 3850
Wire Wire Line
	3150 4100 4050 4100
Connection ~ 3650 4100
Wire Wire Line
	3150 3650 3150 4100
Wire Wire Line
	3150 3650 3250 3650
Wire Wire Line
	3250 3750 3150 3750
Connection ~ 3150 3750
Wire Wire Line
	3250 3850 3150 3850
Connection ~ 3150 3850
Text Notes 2700 3850 0    60   ~ 0
Address:\nW = A0\nR = A1
$Comp
L GND #PWR038
U 1 1 5A6F8B2E
P 6700 2050
F 0 "#PWR038" H 6700 1800 50  0001 C CNN
F 1 "GND" H 6700 1900 50  0000 C CNN
F 2 "" H 6700 2050 50  0001 C CNN
F 3 "" H 6700 2050 50  0001 C CNN
	1    6700 2050
	1    0    0    -1  
$EndComp
Wire Wire Line
	6700 1950 6700 2050
Connection ~ 6100 1950
Wire Wire Line
	4850 3450 4850 3000
Wire Wire Line
	4850 3000 6350 3000
Wire Wire Line
	6350 3000 6350 3850
Wire Wire Line
	6350 3750 6650 3750
Wire Wire Line
	6650 3550 6350 3550
Connection ~ 6350 3550
$Comp
L GND #PWR039
U 1 1 5A6F9270
P 6350 3850
F 0 "#PWR039" H 6350 3600 50  0001 C CNN
F 1 "GND" H 6350 3700 50  0000 C CNN
F 2 "" H 6350 3850 50  0001 C CNN
F 3 "" H 6350 3850 50  0001 C CNN
	1    6350 3850
	1    0    0    -1  
$EndComp
Connection ~ 6350 3750
Wire Wire Line
	6000 2150 6550 2150
Wire Wire Line
	6550 2150 6550 3650
Wire Wire Line
	6550 3650 6650 3650
$Comp
L +5V #PWR040
U 1 1 5A6F966D
P 6450 3350
F 0 "#PWR040" H 6450 3200 50  0001 C CNN
F 1 "+5V" H 6450 3490 50  0000 C CNN
F 2 "" H 6450 3350 50  0001 C CNN
F 3 "" H 6450 3350 50  0001 C CNN
	1    6450 3350
	1    0    0    -1  
$EndComp
$Comp
L +5V #PWR041
U 1 1 5A6F9687
P 4700 3450
F 0 "#PWR041" H 4700 3300 50  0001 C CNN
F 1 "+5V" H 4700 3590 50  0000 C CNN
F 2 "" H 4700 3450 50  0001 C CNN
F 3 "" H 4700 3450 50  0001 C CNN
	1    4700 3450
	1    0    0    -1  
$EndComp
$Comp
L +5V #PWR042
U 1 1 5A6F96A1
P 6300 2350
F 0 "#PWR042" H 6300 2200 50  0001 C CNN
F 1 "+5V" H 6300 2490 50  0000 C CNN
F 2 "" H 6300 2350 50  0001 C CNN
F 3 "" H 6300 2350 50  0001 C CNN
	1    6300 2350
	1    0    0    -1  
$EndComp
Wire Wire Line
	6000 2350 6300 2350
Wire Wire Line
	6450 3350 6450 3450
Wire Wire Line
	6450 3450 6650 3450
Wire Wire Line
	4850 3550 4700 3550
Wire Wire Line
	4700 3550 4700 3450
Text Label 6550 2750 0    60   ~ 0
BATT_CHG
$Comp
L 24LC256 U4
U 1 1 5A723299
P 3650 3750
F 0 "U4" H 3400 4000 50  0000 C CNN
F 1 "24LC256" H 3700 4000 50  0000 L CNN
F 2 "Housings_DIP:DIP-8_W7.62mm_Socket_LongPads" H 3700 3500 50  0001 L CNN
F 3 "" H 3650 3650 50  0001 C CNN
	1    3650 3750
	1    0    0    -1  
$EndComp
$Comp
L Batt_Controller J12
U 1 1 5A720056
P 7100 3600
F 0 "J12" H 7100 3150 50  0000 C CNN
F 1 "Batt_Controller" H 7100 3250 50  0000 C CNN
F 2 "PM_footprints:Batt_controller" H 7300 3600 50  0001 C CIN
F 3 "" H 7300 3600 50  0001 C CNN
	1    7100 3600
	1    0    0    -1  
$EndComp
$Comp
L Battery_1200mAh J13
U 1 1 5A720F9E
P 8050 3600
F 0 "J13" H 8050 3250 50  0000 C CNN
F 1 "Battery_1200mAh" H 8050 3350 50  0000 C CNN
F 2 "Connectors_JST:JST_XH_S02B-XH-A_02x2.50mm_Angled" H 8100 3600 50  0001 C CIN
F 3 "" H 8100 3600 50  0001 C CNN
	1    8050 3600
	1    0    0    -1  
$EndComp
Wire Wire Line
	7600 3550 7800 3550
Wire Wire Line
	7800 3650 7600 3650
$Comp
L RTC J10
U 1 1 5A7246DC
P 5150 3650
F 0 "J10" H 5150 3150 50  0000 C CNN
F 1 "RTC" H 5150 3250 50  0000 C CNN
F 2 "PM_footprints:RTC_footprint" H 5150 3600 50  0001 C CIN
F 3 "" H 5150 3600 50  0001 C CNN
	1    5150 3650
	1    0    0    1   
$EndComp
$Comp
L R R9
U 1 1 5AA02793
P 4050 2900
F 0 "R9" V 4130 2900 50  0000 C CNN
F 1 "10K" V 4050 2900 50  0000 C CNN
F 2 "Resistors_THT:R_Axial_DIN0207_L6.3mm_D2.5mm_P10.16mm_Horizontal" V 3980 2900 50  0001 C CNN
F 3 "" H 4050 2900 50  0001 C CNN
	1    4050 2900
	0    1    1    0   
$EndComp
$Comp
L R R10
U 1 1 5AA027DF
P 4050 3150
F 0 "R10" V 4130 3150 50  0000 C CNN
F 1 "10K" V 4050 3150 50  0000 C CNN
F 2 "Resistors_THT:R_Axial_DIN0207_L6.3mm_D2.5mm_P10.16mm_Horizontal" V 3980 3150 50  0001 C CNN
F 3 "" H 4050 3150 50  0001 C CNN
	1    4050 3150
	0    1    1    0   
$EndComp
Wire Wire Line
	4200 2900 4450 2900
Connection ~ 4450 2900
Wire Wire Line
	4200 3150 4550 3150
Connection ~ 4550 3150
Wire Wire Line
	3900 2900 3650 2900
Connection ~ 3650 2900
Wire Wire Line
	3900 3150 3650 3150
Connection ~ 3650 3150
$EndSCHEMATC
