EESchema Schematic File Version 2
LIBS:air_monitor_schematic_v2-rescue
LIBS:power
LIBS:device
LIBS:switches
LIBS:relays
LIBS:motors
LIBS:transistors
LIBS:conn
LIBS:linear
LIBS:regul
LIBS:74xx
LIBS:cmos4000
LIBS:adc-dac
LIBS:memory
LIBS:xilinx
LIBS:microcontrollers
LIBS:dsp
LIBS:microchip
LIBS:analog_switches
LIBS:motorola
LIBS:texas
LIBS:intel
LIBS:audio
LIBS:interface
LIBS:digital-audio
LIBS:philips
LIBS:display
LIBS:cypress
LIBS:siliconi
LIBS:opto
LIBS:atmel
LIBS:contrib
LIBS:valves
LIBS:microchip_pic16mcu
LIBS:PM_lib
EELAYER 25 0
EELAYER END
$Descr A4 11693 8268
encoding utf-8
Sheet 2 4
Title "Air quality monitor: Sensor unit"
Date "2018-01-28"
Rev "2"
Comp "George Bryant 1418415"
Comment1 "Module DM3330"
Comment2 "Brunel University London"
Comment3 ""
Comment4 ""
$EndDescr
$Comp
L Accelerometer J1
U 1 1 5A6DC2E6
P 2100 3700
F 0 "J1" H 2100 3200 50  0000 C CNN
F 1 "Accelerometer" H 2100 3300 50  0000 C CNN
F 2 "PM_footprints:DIP-10_ADXL345" H 2100 3700 50  0001 C CIN
F 3 "" H 2100 3700 50  0001 C CNN
	1    2100 3700
	-1   0    0    1   
$EndComp
$Comp
L HPM J2
U 1 1 5A6DC359
P 2200 4900
F 0 "J2" H 2200 4450 50  0000 C CNN
F 1 "HPMA115S0" H 2200 4550 50  0000 C CNN
F 2 "Pin_Headers:Pin_Header_Straight_1x04_Pitch2.54mm" H 2200 4900 50  0001 C CIN
F 3 "" H 2200 4900 50  0001 C CNN
	1    2200 4900
	-1   0    0    -1  
$EndComp
$Comp
L LED_CRGB D1
U 1 1 5A6DC560
P 8250 3800
F 0 "D1" H 8250 4170 50  0000 C CNN
F 1 "LED_CRGB" H 8250 3450 50  0000 C CNN
F 2 "Pin_Headers:Pin_Header_Angled_1x04_Pitch2.54mm" H 8250 3750 50  0001 C CNN
F 3 "" H 8250 3750 50  0001 C CNN
	1    8250 3800
	-1   0    0    -1  
$EndComp
$Comp
L Interconnect J3
U 1 1 5A6DC5B9
P 5100 1800
F 0 "J3" H 5100 1400 50  0000 C CNN
F 1 "Interconnect" H 5100 1500 50  0000 C CNN
F 2 "Pin_Headers:Pin_Header_Angled_2x03_Pitch2.54mm" H 5100 1800 50  0001 C CIN
F 3 "" H 5100 1800 50  0001 C CNN
	1    5100 1800
	1    0    0    -1  
$EndComp
$Comp
L C C1
U 1 1 5A6DC611
P 5300 3050
F 0 "C1" H 5325 3150 50  0000 L CNN
F 1 "100nF" H 5325 2950 50  0000 L CNN
F 2 "Capacitors_THT:C_Disc_D6.0mm_W2.5mm_P5.00mm" H 5338 2900 50  0001 C CNN
F 3 "" H 5300 3050 50  0001 C CNN
	1    5300 3050
	0    -1   -1   0   
$EndComp
$Comp
L R R5
U 1 1 5A6DC654
P 7800 4000
F 0 "R5" V 7880 4000 50  0000 C CNN
F 1 "160" V 7800 4000 50  0000 C CNN
F 2 "Resistors_THT:R_Axial_DIN0207_L6.3mm_D2.5mm_P10.16mm_Horizontal" V 7730 4000 50  0001 C CNN
F 3 "" H 7800 4000 50  0001 C CNN
	1    7800 4000
	0    1    1    0   
$EndComp
$Comp
L R R4
U 1 1 5A6DC677
P 7800 3800
F 0 "R4" V 7880 3800 50  0000 C CNN
F 1 "90" V 7800 3800 50  0000 C CNN
F 2 "Resistors_THT:R_Axial_DIN0207_L6.3mm_D2.5mm_P10.16mm_Horizontal" V 7730 3800 50  0001 C CNN
F 3 "" H 7800 3800 50  0001 C CNN
	1    7800 3800
	0    1    1    0   
$EndComp
$Comp
L R R3
U 1 1 5A6DC6BC
P 7800 3600
F 0 "R3" V 7880 3600 50  0000 C CNN
F 1 "90" V 7800 3600 50  0000 C CNN
F 2 "Resistors_THT:R_Axial_DIN0207_L6.3mm_D2.5mm_P10.16mm_Horizontal" V 7730 3600 50  0001 C CNN
F 3 "" H 7800 3600 50  0001 C CNN
	1    7800 3600
	0    1    1    0   
$EndComp
$Comp
L R R2
U 1 1 5A6DC6FF
P 7000 4600
F 0 "R2" V 7080 4600 50  0000 C CNN
F 1 "10K" V 7000 4600 50  0000 C CNN
F 2 "Resistors_THT:R_Axial_DIN0207_L6.3mm_D2.5mm_P10.16mm_Horizontal" V 6930 4600 50  0001 C CNN
F 3 "" H 7000 4600 50  0001 C CNN
	1    7000 4600
	0    -1   -1   0   
$EndComp
$Comp
L ICSP J4
U 1 1 5A6DC754
P 5650 5800
F 0 "J4" H 5650 5250 50  0000 C CNN
F 1 "ICSP" H 5650 5350 50  0000 C CNN
F 2 "Pin_Headers:Pin_Header_Straight_1x06_Pitch2.54mm" H 5650 5800 50  0001 C CIN
F 3 "" H 5650 5800 50  0001 C CNN
	1    5650 5800
	0    1    1    0   
$EndComp
$Comp
L +5V #PWR05
U 1 1 5A6DD5CC
P 5650 3100
F 0 "#PWR05" H 5650 2950 50  0001 C CNN
F 1 "+5V" H 5650 3240 50  0000 C CNN
F 2 "" H 5650 3100 50  0001 C CNN
F 3 "" H 5650 3100 50  0001 C CNN
	1    5650 3100
	1    0    0    -1  
$EndComp
$Comp
L GND #PWR06
U 1 1 5A6DD62D
P 5650 4700
F 0 "#PWR06" H 5650 4450 50  0001 C CNN
F 1 "GND" H 5650 4550 50  0000 C CNN
F 2 "" H 5650 4700 50  0001 C CNN
F 3 "" H 5650 4700 50  0001 C CNN
	1    5650 4700
	1    0    0    -1  
$EndComp
$Comp
L GND #PWR07
U 1 1 5A6DD84D
P 5050 3050
F 0 "#PWR07" H 5050 2800 50  0001 C CNN
F 1 "GND" H 5050 2900 50  0000 C CNN
F 2 "" H 5050 3050 50  0001 C CNN
F 3 "" H 5050 3050 50  0001 C CNN
	1    5050 3050
	1    0    0    -1  
$EndComp
$Comp
L GND #PWR08
U 1 1 5A6DE22E
P 8650 3800
F 0 "#PWR08" H 8650 3550 50  0001 C CNN
F 1 "GND" H 8650 3650 50  0000 C CNN
F 2 "" H 8650 3800 50  0001 C CNN
F 3 "" H 8650 3800 50  0001 C CNN
	1    8650 3800
	1    0    0    -1  
$EndComp
NoConn ~ 5550 1800
Text Label 3050 3600 0    60   ~ 0
I2C_SDA
Text Label 3050 3700 0    60   ~ 0
I2C_SCL
Text Label 7550 3800 2    60   ~ 0
LED_G
Text Label 7550 4000 2    60   ~ 0
LED_B
Text Label 7550 3600 2    60   ~ 0
LED_R
NoConn ~ 5550 1700
$Comp
L +5V #PWR09
U 1 1 5A6E2796
P 5800 5150
F 0 "#PWR09" H 5800 5000 50  0001 C CNN
F 1 "+5V" H 5800 5290 50  0000 C CNN
F 2 "" H 5800 5150 50  0001 C CNN
F 3 "" H 5800 5150 50  0001 C CNN
	1    5800 5150
	1    0    0    -1  
$EndComp
Text Label 4900 5300 0    60   ~ 0
PGD
Text Label 4900 5400 0    60   ~ 0
PGC
Text Label 6100 5500 0    60   ~ 0
MCLR
$Comp
L GND #PWR010
U 1 1 5A6E32EA
P 4250 1700
F 0 "#PWR010" H 4250 1450 50  0001 C CNN
F 1 "GND" H 4250 1550 50  0000 C CNN
F 2 "" H 4250 1700 50  0001 C CNN
F 3 "" H 4250 1700 50  0001 C CNN
	1    4250 1700
	1    0    0    -1  
$EndComp
$Comp
L +5V #PWR011
U 1 1 5A6E3314
P 5750 1900
F 0 "#PWR011" H 5750 1750 50  0001 C CNN
F 1 "+5V" H 5750 2040 50  0000 C CNN
F 2 "" H 5750 1900 50  0001 C CNN
F 3 "" H 5750 1900 50  0001 C CNN
	1    5750 1900
	1    0    0    -1  
$EndComp
$Comp
L GND #PWR012
U 1 1 5A6E3C56
P 2900 3800
F 0 "#PWR012" H 2900 3550 50  0001 C CNN
F 1 "GND" H 2900 3650 50  0000 C CNN
F 2 "" H 2900 3800 50  0001 C CNN
F 3 "" H 2900 3800 50  0001 C CNN
	1    2900 3800
	-1   0    0    -1  
$EndComp
$Comp
L +5V #PWR013
U 1 1 5A6E3CAE
P 2650 4050
F 0 "#PWR013" H 2650 3900 50  0001 C CNN
F 1 "+5V" H 2650 4190 50  0000 C CNN
F 2 "" H 2650 4050 50  0001 C CNN
F 3 "" H 2650 4050 50  0001 C CNN
	1    2650 4050
	1    0    0    -1  
$EndComp
NoConn ~ 6650 4100
NoConn ~ 6650 4200
NoConn ~ 6650 3600
$Comp
L +5V #PWR014
U 1 1 5A6E56F7
P 2600 4650
F 0 "#PWR014" H 2600 4500 50  0001 C CNN
F 1 "+5V" H 2600 4790 50  0000 C CNN
F 2 "" H 2600 4650 50  0001 C CNN
F 3 "" H 2600 4650 50  0001 C CNN
	1    2600 4650
	-1   0    0    -1  
$EndComp
$Comp
L GND #PWR015
U 1 1 5A6E5723
P 2600 5850
F 0 "#PWR015" H 2600 5600 50  0001 C CNN
F 1 "GND" H 2600 5700 50  0000 C CNN
F 2 "" H 2600 5850 50  0001 C CNN
F 3 "" H 2600 5850 50  0001 C CNN
	1    2600 5850
	-1   0    0    -1  
$EndComp
Text Label 2900 4850 2    60   ~ 0
HPM_TX
Text Label 2900 4950 2    60   ~ 0
HPM_RX
NoConn ~ 1650 3500
NoConn ~ 1650 3600
NoConn ~ 1650 3700
NoConn ~ 1650 3900
$Comp
L +5V #PWR016
U 1 1 5A7197D4
P 1450 3700
F 0 "#PWR016" H 1450 3550 50  0001 C CNN
F 1 "+5V" H 1450 3840 50  0000 C CNN
F 2 "" H 1450 3700 50  0001 C CNN
F 3 "" H 1450 3700 50  0001 C CNN
	1    1450 3700
	1    0    0    -1  
$EndComp
$Comp
L 2N7000 Q1
U 1 1 5A71B22F
P 2700 5550
F 0 "Q1" H 2900 5625 50  0000 L CNN
F 1 "2N7000" H 2900 5550 50  0000 L CNN
F 2 "TO_SOT_Packages_THT:TO-92_Molded_Narrow" H 2900 5475 50  0001 L CIN
F 3 "" H 2700 5550 50  0001 L CNN
	1    2700 5550
	-1   0    0    -1  
$EndComp
$Comp
L R R1
U 1 1 5A71E9E4
P 2850 5800
F 0 "R1" V 2930 5800 50  0000 C CNN
F 1 "10K" V 2850 5800 50  0000 C CNN
F 2 "Resistors_THT:R_Axial_DIN0207_L6.3mm_D2.5mm_P10.16mm_Horizontal" V 2780 5800 50  0001 C CNN
F 3 "" H 2850 5800 50  0001 C CNN
	1    2850 5800
	0    1    1    0   
$EndComp
Wire Wire Line
	5050 3050 5150 3050
Wire Wire Line
	5450 3050 5450 3200
Wire Wire Line
	5450 3200 5650 3200
Wire Wire Line
	5650 3200 5650 3100
Wire Wire Line
	8450 3800 8650 3800
Wire Wire Line
	3750 3900 4650 3900
Wire Wire Line
	3750 3700 2500 3700
Wire Wire Line
	2500 3600 4650 3600
Wire Wire Line
	3750 3900 3750 3700
Wire Wire Line
	5650 4600 5650 4700
Wire Wire Line
	6750 4000 6750 5500
Wire Wire Line
	6750 4000 6650 4000
Wire Wire Line
	4650 1900 4550 1900
Wire Wire Line
	4550 1900 4550 3600
Connection ~ 4550 3600
Wire Wire Line
	4450 3900 4450 1800
Wire Wire Line
	4450 1800 4650 1800
Connection ~ 4450 3900
Wire Wire Line
	8050 3600 7950 3600
Wire Wire Line
	7950 3800 8050 3800
Wire Wire Line
	8050 4000 7950 4000
Wire Wire Line
	6750 5500 5900 5500
Connection ~ 6750 4600
Wire Wire Line
	5800 5500 5800 5150
Wire Wire Line
	5600 5500 5600 5300
Wire Wire Line
	5600 5300 4650 5300
Wire Wire Line
	4650 5300 4650 4200
Wire Wire Line
	4550 4100 4650 4100
Wire Wire Line
	4550 4100 4550 5400
Wire Wire Line
	4550 5400 5500 5400
Wire Wire Line
	5500 5400 5500 5500
Wire Wire Line
	5700 5500 5700 5000
Wire Wire Line
	5700 5000 5400 5000
Wire Wire Line
	5400 5000 5400 4600
Connection ~ 5650 4600
Wire Wire Line
	5750 1900 5550 1900
Wire Wire Line
	4650 1700 4250 1700
Wire Wire Line
	2500 3800 2900 3800
Wire Wire Line
	2500 3900 2500 4050
Wire Wire Line
	2500 4050 2650 4050
Wire Wire Line
	1650 3800 1450 3800
Wire Wire Line
	1450 3800 1450 3700
Wire Wire Line
	2600 4650 2600 4750
Wire Wire Line
	2600 4750 2500 4750
Wire Wire Line
	2500 4850 4250 4850
Wire Wire Line
	4250 4850 4250 3500
Wire Wire Line
	4250 3500 4650 3500
Wire Wire Line
	4650 3700 4350 3700
Wire Wire Line
	4350 3700 4350 4950
Wire Wire Line
	4350 4950 2500 4950
Wire Wire Line
	2500 5050 2600 5050
Wire Wire Line
	2600 5050 2600 5350
Wire Wire Line
	2600 5750 2600 5850
Wire Wire Line
	2700 5800 2600 5800
Connection ~ 2600 5800
Wire Wire Line
	3000 5800 3000 5550
Wire Wire Line
	3000 5550 2900 5550
Wire Wire Line
	4650 3800 4150 3800
Wire Wire Line
	4150 3800 4150 5800
Wire Wire Line
	4150 5800 3000 5800
NoConn ~ 4650 4000
NoConn ~ 6650 3500
$Comp
L PWR_FLAG #FLG017
U 1 1 5A720CB7
P 2800 5250
F 0 "#FLG017" H 2800 5325 50  0001 C CNN
F 1 "PWR_FLAG" H 2800 5400 50  0000 C CNN
F 2 "" H 2800 5250 50  0001 C CNN
F 3 "" H 2800 5250 50  0001 C CNN
	1    2800 5250
	1    0    0    -1  
$EndComp
Wire Wire Line
	2800 5250 2800 5300
Wire Wire Line
	2800 5300 2600 5300
Connection ~ 2600 5300
Wire Wire Line
	7650 3800 6650 3800
Wire Wire Line
	6650 3700 7200 3700
Wire Wire Line
	7200 3700 7200 3600
Wire Wire Line
	7200 3600 7650 3600
Wire Wire Line
	6650 3900 7200 3900
Wire Wire Line
	7200 3900 7200 4000
Wire Wire Line
	7200 4000 7650 4000
$Comp
L PIC16F1827-I/P U1
U 1 1 5A71C80C
P 5650 3900
F 0 "U1" H 5800 4600 50  0000 L CNN
F 1 "PIC16F1827-I/P" H 5800 4500 50  0000 L CNN
F 2 "Housings_DIP:DIP-18_W7.62mm_Socket_LongPads" H 5650 3900 50  0001 C CIN
F 3 "" H 5650 3900 50  0001 C CNN
	1    5650 3900
	1    0    0    -1  
$EndComp
$Comp
L +5V #PWR018
U 1 1 5A7E68A9
P 7250 4500
F 0 "#PWR018" H 7250 4350 50  0001 C CNN
F 1 "+5V" H 7250 4640 50  0000 C CNN
F 2 "" H 7250 4500 50  0001 C CNN
F 3 "" H 7250 4500 50  0001 C CNN
	1    7250 4500
	1    0    0    -1  
$EndComp
Wire Wire Line
	6850 4600 6750 4600
Wire Wire Line
	7150 4600 7250 4600
Wire Wire Line
	7250 4600 7250 4500
Wire Wire Line
	5400 4600 5650 4600
$EndSCHEMATC
