(module Display-SIP-20 (layer F.Cu) (tedit 0)
  (fp_text reference REF** (at 0 2.7) (layer F.SilkS)
    (effects (font (size 1.2 1.2) (thickness 0.15)))
  )
  (fp_text value SIP-20 (at 0 -2.7) (layer F.Fab)
    (effects (font (size 1.2 1.2) (thickness 0.15)))
  )
  (fp_line (start -25.23 -1.5) (end 25.23 -1.5) (layer F.SilkS) (width 0.15))
  (fp_line (start 25.23 -1.5) (end 25.23 1.5) (layer F.SilkS) (width 0.15))
  (fp_line (start 25.23 1.5) (end -25.23 1.5) (layer F.SilkS) (width 0.15))
  (fp_line (start -25.23 1.5) (end -25.23 -1.5) (layer F.SilkS) (width 0.15))
  (fp_line (start -22.86 -1.5) (end -22.86 1.5) (layer F.SilkS) (width 0.15))
  (pad 1 thru_hole oval (at -24.13 0) (size 1.2 2) (drill 0.8) (layers *.Cu *.Mask))
  (pad 2 thru_hole oval (at -21.59 0) (size 1.2 2) (drill 0.8) (layers *.Cu *.Mask))
  (pad 3 thru_hole oval (at -19.05 0) (size 1.2 2) (drill 0.8) (layers *.Cu *.Mask))
  (pad 4 thru_hole oval (at -16.51 0) (size 1.2 2) (drill 0.8) (layers *.Cu *.Mask))
  (pad 5 thru_hole oval (at -13.97 0) (size 1.2 2) (drill 0.8) (layers *.Cu *.Mask))
  (pad 6 thru_hole oval (at -11.43 0) (size 1.2 2) (drill 0.8) (layers *.Cu *.Mask))
  (pad 7 thru_hole oval (at -8.89 0) (size 1.2 2) (drill 0.8) (layers *.Cu *.Mask))
  (pad 8 thru_hole oval (at -6.35 0) (size 1.2 2) (drill 0.8) (layers *.Cu *.Mask))
  (pad 9 thru_hole oval (at -3.81 0) (size 1.2 2) (drill 0.8) (layers *.Cu *.Mask))
  (pad 10 thru_hole oval (at -1.27 0) (size 1.2 2) (drill 0.8) (layers *.Cu *.Mask))
  (pad 11 thru_hole oval (at 1.27 0) (size 1.2 2) (drill 0.8) (layers *.Cu *.Mask))
  (pad 12 thru_hole oval (at 3.81 0) (size 1.2 2) (drill 0.8) (layers *.Cu *.Mask))
  (pad 13 thru_hole oval (at 6.35 0) (size 1.2 2) (drill 0.8) (layers *.Cu *.Mask))
  (pad 14 thru_hole oval (at 8.89 0) (size 1.2 2) (drill 0.8) (layers *.Cu *.Mask))
  (pad 15 thru_hole oval (at 11.43 0) (size 1.2 2) (drill 0.8) (layers *.Cu *.Mask))
  (pad 16 thru_hole oval (at 13.97 0) (size 1.2 2) (drill 0.8) (layers *.Cu *.Mask))
  (pad 17 thru_hole oval (at 16.51 0) (size 1.2 2) (drill 0.8) (layers *.Cu *.Mask))
  (pad 18 thru_hole oval (at 19.05 0) (size 1.2 2) (drill 0.8) (layers *.Cu *.Mask))
  (pad 19 thru_hole oval (at 21.59 0) (size 1.2 2) (drill 0.8) (layers *.Cu *.Mask))
  (pad 20 thru_hole oval (at 24.13 0) (size 1.2 2) (drill 0.8) (layers *.Cu *.Mask))
)
